<svg width="9" height="7" viewBox="0 0 9 7" fill="none" xmlns="http://www.w3.org/2000/svg">
<path d="M3.57232 4.79542C3.18029 5.19512 2.53652 5.19512 2.14448 4.79542L1.0933 3.72369C0.890617 3.51705 0.557776 3.51705 0.35509 3.72369V3.72369C0.157877 3.92476 0.157877 4.24669 0.35509 4.44776L2.14449 6.27213C2.53652 6.67182 3.18029 6.67182 3.57232 6.27213L8.64491 1.10038C8.84212 0.899315 8.84212 0.57739 8.64491 0.376322V0.376322C8.44222 0.169674 8.10938 0.169674 7.9067 0.376322L3.57232 4.79542Z" fill="#0665FD"/>
</svg>
