<svg width="258" height="42" viewBox="0 0 258 42" fill="none" xmlns="http://www.w3.org/2000/svg">
    <path d="M77.2 11.6V34H72.048V15.824H61.936V34H56.784V11.6H77.2ZM91.2327 16.528C92.8327 16.528 94.2834 16.9013 95.5847 17.648C96.9074 18.3733 97.9421 19.408 98.6887 20.752C99.4354 22.0747 99.8088 23.6213 99.8088 25.392C99.8088 27.1627 99.4354 28.72 98.6887 30.064C97.9421 31.3867 96.9074 32.4213 95.5847 33.168C94.2834 33.8933 92.8327 34.256 91.2327 34.256C89.0354 34.256 87.3074 33.5627 86.0487 32.176V40.208H81.0567V16.784H85.8247V18.768C87.0621 17.2747 88.8647 16.528 91.2327 16.528ZM90.3687 30.16C91.6487 30.16 92.6941 29.7333 93.5048 28.88C94.3368 28.0053 94.7528 26.8427 94.7528 25.392C94.7528 23.9413 94.3368 22.7893 93.5048 21.936C92.6941 21.0613 91.6487 20.624 90.3687 20.624C89.0887 20.624 88.0327 21.0613 87.2007 21.936C86.3901 22.7893 85.9847 23.9413 85.9847 25.392C85.9847 26.8427 86.3901 28.0053 87.2007 28.88C88.0327 29.7333 89.0887 30.16 90.3687 30.16ZM110.091 34.256C108.278 34.256 106.646 33.8827 105.195 33.136C103.766 32.368 102.646 31.312 101.835 29.968C101.025 28.624 100.619 27.0987 100.619 25.392C100.619 23.6853 101.025 22.16 101.835 20.816C102.646 19.472 103.766 18.4267 105.195 17.68C106.646 16.912 108.278 16.528 110.091 16.528C111.905 16.528 113.526 16.912 114.955 17.68C116.385 18.4267 117.505 19.472 118.316 20.816C119.126 22.16 119.531 23.6853 119.531 25.392C119.531 27.0987 119.126 28.624 118.316 29.968C117.505 31.312 116.385 32.368 114.955 33.136C113.526 33.8827 111.905 34.256 110.091 34.256ZM110.091 30.16C111.371 30.16 112.417 29.7333 113.227 28.88C114.059 28.0053 114.475 26.8427 114.475 25.392C114.475 23.9413 114.059 22.7893 113.227 21.936C112.417 21.0613 111.371 20.624 110.091 20.624C108.811 20.624 107.755 21.0613 106.923 21.936C106.091 22.7893 105.675 23.9413 105.675 25.392C105.675 26.8427 106.091 28.0053 106.923 28.88C107.755 29.7333 108.811 30.16 110.091 30.16ZM134.837 25.008C136.864 25.6907 137.877 27.056 137.877 29.104C137.877 30.6613 137.29 31.8667 136.117 32.72C134.944 33.5733 133.194 34 130.869 34H121.685V16.784H130.485C132.64 16.784 134.325 17.1787 135.541 17.968C136.757 18.736 137.365 19.824 137.365 21.232C137.365 22.0853 137.141 22.8427 136.693 23.504C136.266 24.144 135.648 24.6453 134.837 25.008ZM126.261 23.856H130.037C131.786 23.856 132.661 23.2373 132.661 22C132.661 20.784 131.786 20.176 130.037 20.176H126.261V23.856ZM130.453 30.608C132.288 30.608 133.205 29.9787 133.205 28.72C133.205 28.0587 132.992 27.5787 132.565 27.28C132.138 26.96 131.466 26.8 130.549 26.8H126.261V30.608H130.453ZM148.375 34.256C146.562 34.256 144.93 33.8827 143.479 33.136C142.05 32.368 140.93 31.312 140.119 29.968C139.309 28.624 138.903 27.0987 138.903 25.392C138.903 23.6853 139.309 22.16 140.119 20.816C140.93 19.472 142.05 18.4267 143.479 17.68C144.93 16.912 146.562 16.528 148.375 16.528C150.189 16.528 151.81 16.912 153.239 17.68C154.669 18.4267 155.789 19.472 156.599 20.816C157.41 22.16 157.815 23.6853 157.815 25.392C157.815 27.0987 157.41 28.624 156.599 29.968C155.789 31.312 154.669 32.368 153.239 33.136C151.81 33.8827 150.189 34.256 148.375 34.256ZM148.375 30.16C149.655 30.16 150.701 29.7333 151.511 28.88C152.343 28.0053 152.759 26.8427 152.759 25.392C152.759 23.9413 152.343 22.7893 151.511 21.936C150.701 21.0613 149.655 20.624 148.375 20.624C147.095 20.624 146.039 21.0613 145.207 21.936C144.375 22.7893 143.959 23.9413 143.959 25.392C143.959 26.8427 144.375 28.0053 145.207 28.88C146.039 29.7333 147.095 30.16 148.375 30.16ZM179.015 29.904V37.712H174.375V34H162.279V37.712H157.639V29.904H158.343C159.409 29.8827 160.145 29.2533 160.551 28.016C160.956 26.7787 161.212 25.0187 161.319 22.736L161.543 16.784H176.551V29.904H179.015ZM165.831 23.088C165.767 24.8373 165.628 26.2667 165.415 27.376C165.223 28.4853 164.849 29.328 164.295 29.904H171.559V20.88H165.927L165.831 23.088ZM180.876 16.784H185.836V23.504H193.324V16.784H198.316V34H193.324V27.568H185.836V34H180.876V16.784ZM201.815 16.784H206.775V27.024L215.159 16.784H219.735V34H214.775V23.76L206.423 34H201.815V16.784ZM230.838 27.472H228.246V34H223.254V16.784H228.246V23.472H230.934L235.606 16.784H240.918L234.902 25.04L241.334 34H235.446L230.838 27.472Z" fill="white"/>
    <path d="M43 19.5359C45.6667 21.0755 47 21.8453 47 23C47 24.1547 45.6667 24.9245 43 26.4641L26.5 35.9904C23.8333 37.53 22.5 38.2998 21.5 37.7224C20.5 37.1451 20.5 35.6055 20.5 32.5263L20.5 13.4737C20.5 10.3945 20.5 8.85492 21.5 8.27757C22.5 7.70022 23.8333 8.47002 26.5 10.0096L43 19.5359Z" fill="#0665FD"/>
    <path d="M43 19.5359C45.6667 21.0755 47 21.8453 47 23C47 24.1547 45.6667 24.9245 43 26.4641L26.5 35.9904C23.8333 37.53 22.5 38.2998 21.5 37.7224C20.5 37.1451 20.5 35.6055 20.5 32.5263L20.5 13.4737C20.5 10.3945 20.5 8.85492 21.5 8.27757C22.5 7.70022 23.8333 8.47002 26.5 10.0096L43 19.5359Z" fill="#0665FD"/>
    <path d="M43 19.5359C45.6667 21.0755 47 21.8453 47 23C47 24.1547 45.6667 24.9245 43 26.4641L26.5 35.9904C23.8333 37.53 22.5 38.2998 21.5 37.7224C20.5 37.1451 20.5 35.6055 20.5 32.5263L20.5 13.4737C20.5 10.3945 20.5 8.85492 21.5 8.27757C22.5 7.70022 23.8333 8.47002 26.5 10.0096L43 19.5359Z" fill="#B4D1FF"/>
    <path d="M30.7035 19.7722C32.9239 21.1253 34.0341 21.8019 34.1442 22.7753C34.161 22.9246 34.161 23.0754 34.1442 23.2247C34.0341 24.1981 32.9239 24.8747 30.7035 26.2278L14.7471 35.952C12.3627 37.4052 11.1705 38.1317 10.2299 37.7393C10.0864 37.6794 9.95038 37.603 9.82456 37.5116C9 36.9127 9 35.5165 9 32.7242L9 13.2758C9 10.4835 9 9.08734 9.82457 8.48837C9.95038 8.39698 10.0864 8.32057 10.2299 8.26069C11.1705 7.86829 12.3627 8.59484 14.7471 10.048L30.7035 19.7722Z" fill="#0665FD"/>
    <path d="M30.7035 19.7722C32.9239 21.1253 34.0341 21.8019 34.1442 22.7753C34.161 22.9246 34.161 23.0754 34.1442 23.2247C34.0341 24.1981 32.9239 24.8747 30.7035 26.2278L14.7471 35.952C12.3627 37.4052 11.1705 38.1317 10.2299 37.7393C10.0864 37.6794 9.95038 37.603 9.82456 37.5116C9 36.9127 9 35.5165 9 32.7242L9 13.2758C9 10.4835 9 9.08734 9.82457 8.48837C9.95038 8.39698 10.0864 8.32057 10.2299 8.26069C11.1705 7.86829 12.3627 8.59484 14.7471 10.048L30.7035 19.7722Z" fill="#0665FD"/>
    <path d="M30.7035 19.7722C32.9239 21.1253 34.0341 21.8019 34.1442 22.7753C34.161 22.9246 34.161 23.0754 34.1442 23.2247C34.0341 24.1981 32.9239 24.8747 30.7035 26.2278L14.7471 35.952C12.3627 37.4052 11.1705 38.1317 10.2299 37.7393C10.0864 37.6794 9.95038 37.603 9.82456 37.5116C9 36.9127 9 35.5165 9 32.7242L9 13.2758C9 10.4835 9 9.08734 9.82457 8.48837C9.95038 8.39698 10.0864 8.32057 10.2299 8.26069C11.1705 7.86829 12.3627 8.59484 14.7471 10.048L30.7035 19.7722Z" fill="#0665FD"/>
    <path d="M249.572 4.158C250.496 4.158 251.331 4.37267 252.078 4.802C252.834 5.23133 253.427 5.824 253.856 6.58C254.285 7.32667 254.5 8.15733 254.5 9.072C254.5 9.98667 254.281 10.8267 253.842 11.592C253.403 12.348 252.806 12.9453 252.05 13.384C251.294 13.8227 250.459 14.042 249.544 14.042C248.629 14.042 247.794 13.8227 247.038 13.384C246.291 12.9453 245.699 12.348 245.26 11.592C244.831 10.836 244.616 10.0053 244.616 9.1C244.616 8.19467 244.831 7.364 245.26 6.608C245.699 5.852 246.296 5.25467 247.052 4.816C247.808 4.37733 248.648 4.158 249.572 4.158ZM249.544 13.272C250.319 13.272 251.019 13.0853 251.644 12.712C252.279 12.3387 252.778 11.8347 253.142 11.2C253.506 10.556 253.688 9.84667 253.688 9.072C253.688 8.29733 253.511 7.59733 253.156 6.972C252.801 6.33733 252.311 5.838 251.686 5.474C251.061 5.11 250.356 4.928 249.572 4.928C248.788 4.928 248.079 5.11467 247.444 5.488C246.809 5.852 246.31 6.35133 245.946 6.986C245.591 7.62067 245.414 8.32533 245.414 9.1C245.414 9.87467 245.591 10.5793 245.946 11.214C246.31 11.8487 246.805 12.3527 247.43 12.726C248.065 13.09 248.769 13.272 249.544 13.272ZM252.106 8.26C252.106 8.67067 252.008 9.02067 251.812 9.31C251.625 9.59933 251.355 9.81867 251 9.968L252.232 11.858H251.028L249.936 10.178H249.782H248.69V11.858H247.486V6.342H249.782C250.501 6.342 251.065 6.51467 251.476 6.86C251.896 7.20533 252.106 7.672 252.106 8.26ZM249.712 9.24C250.104 9.24 250.407 9.156 250.622 8.988C250.837 8.81067 250.944 8.568 250.944 8.26C250.944 7.952 250.837 7.714 250.622 7.546C250.407 7.378 250.104 7.294 249.712 7.294H248.676V9.24H249.712Z" fill="white"/>
</svg>
